<?xml version="1.0" encoding="UTF-8"?>
<robot generator="Robot 6.1 (Python 3.8.10 on win32)" generated="20230724 20:58:10.992" rpa="false" schemaversion="4">
<suite id="s1" name="Get User By Id" source="C:\Users\Adhi Ernest\Documents\Capital\Automation\rf-automation-scratch\test\api\get_user_by_id.robot">
<test id="s1-t1" name="GET API User" line="11">
<kw name="Create Session" library="RequestsLibrary">
<arg>Get_user</arg>
<arg>${Base_URL}</arg>
<doc>Create Session: create a HTTP session to a server</doc>
<msg timestamp="20230724 20:58:11.921" level="INFO">Creating Session using : alias=Get_user, url=https://reqres.in/, headers={},                     cookies={}, auth=None, timeout=None, proxies=None, verify=False,                     debug=0 </msg>
<status status="PASS" starttime="20230724 20:58:11.921" endtime="20230724 20:58:11.922"/>
</kw>
<kw name="GET On Session" library="RequestsLibrary">
<var>${response}</var>
<arg>Get_user</arg>
<arg>api/users</arg>
<doc>Sends a GET request on a previously created HTTP Session.</doc>
<msg timestamp="20230724 20:58:12.055" level="INFO">GET Request : url=https://reqres.in/api/users 
 path_url=/api/users 
 headers={'User-Agent': 'python-requests/2.31.0', 'Accept-Encoding': 'gzip, deflate', 'Accept': '*/*', 'Connection': 'keep-alive'} 
 body=None 
 </msg>
<msg timestamp="20230724 20:58:12.055" level="INFO">GET Response : url=https://reqres.in/api/users 
 status=200, reason=OK 
 headers={'Date': 'Mon, 24 Jul 2023 13:58:11 GMT', 'Content-Type': 'application/json; charset=utf-8', 'Transfer-Encoding': 'chunked', 'Connection': 'keep-alive', 'X-Powered-By': 'Express', 'Access-Control-Allow-Origin': '*', 'Etag': 'W/"3e4-2RLXvr5wTg9YQ6aH95CkYoFNuO8"', 'Via': '1.1 vegur', 'Cache-Control': 'max-age=14400', 'CF-Cache-Status': 'HIT', 'Age': '411', 'Report-To': '{"endpoints":[{"url":"https:\\/\\/a.nel.cloudflare.com\\/report\\/v3?s=wWKPDZM3tzarbb78cDvD5S7dXbzya0e4XdOyHL%2FVWEcuWKg8Tzswz4DX004d8vqli6CNvcu%2BYILi6YL%2BNvHThec0PEgK1jHipWmvYdD6g3BM8CKBT%2BvEo7iX9A%3D%3D"}],"group":"cf-nel","max_age":604800}', 'NEL': '{"success_fraction":0,"report_to":"cf-nel","max_age":604800}', 'Vary': 'Accept-Encoding', 'Server': 'cloudflare', 'CF-RAY': '7ebcad2f1c503fb1-SIN', 'Content-Encoding': 'gzip'} 
 body={"page":1,"per_page":6,"total":12,"total_pages":2,"data":[{"id":1,"email":"george.bluth@reqres.in","first_name":"George","last_name":"Bluth","avatar":"https://reqres.in/img/faces/1-image.jpg"},{"id":2,"email":"janet.weaver@reqres.in","first_name":"Janet","last_name":"Weaver","avatar":"https://reqres.in/img/faces/2-image.jpg"},{"id":3,"email":"emma.wong@reqres.in","first_name":"Emma","last_name":"Wong","avatar":"https://reqres.in/img/faces/3-image.jpg"},{"id":4,"email":"eve.holt@reqres.in","first_name":"Eve","last_name":"Holt","avatar":"https://reqres.in/img/faces/4-image.jpg"},{"id":5,"email":"charles.morris@reqres.in","first_name":"Charles","last_name":"Morris","avatar":"https://reqres.in/img/faces/5-image.jpg"},{"id":6,"email":"tracey.ramos@reqres.in","first_name":"Tracey","last_name":"Ramos","avatar":"https://reqres.in/img/faces/6-image.jpg"}],"support":{"url":"https://reqres.in/#support-heading","text":"To keep ReqRes free, contributions towards server costs are appreciated!"}} 
 </msg>
<msg timestamp="20230724 20:58:12.055" level="INFO">C:\Users\Adhi Ernest\.virtualenvs\rf-automation-scratch-xoZDDNNL\lib\site-packages\urllib3\connectionpool.py:1056: InsecureRequestWarning: Unverified HTTPS request is being made to host 'reqres.in'. Adding certificate verification is strongly advised. See: https://urllib3.readthedocs.io/en/1.26.x/advanced-usage.html#ssl-warnings
  warnings.warn(</msg>
<msg timestamp="20230724 20:58:12.056" level="INFO">${response} = &lt;Response [200]&gt;</msg>
<status status="PASS" starttime="20230724 20:58:11.922" endtime="20230724 20:58:12.056"/>
</kw>
<kw name="Log To Console" library="BuiltIn">
<arg>${response}</arg>
<doc>Logs the given message to the console.</doc>
<status status="PASS" starttime="20230724 20:58:12.057" endtime="20230724 20:58:12.057"/>
</kw>
<status status="PASS" starttime="20230724 20:58:11.920" endtime="20230724 20:58:12.058"/>
</test>
<doc>API Test</doc>
<status status="PASS" starttime="20230724 20:58:10.992" endtime="20230724 20:58:12.060"/>
</suite>
<statistics>
<total>
<stat pass="1" fail="0" skip="0">All Tests</stat>
</total>
<tag>
</tag>
<suite>
<stat pass="1" fail="0" skip="0" id="s1" name="Get User By Id">Get User By Id</stat>
</suite>
</statistics>
<errors>
</errors>
</robot>
